%YAML 1.1
%TAG !u! tag:unity3d.com,2011:
--- !u!114 &11400000
MonoBehaviour:
  m_ObjectHideFlags: 0
  m_CorrespondingSourceObject: {fileID: 0}
  m_PrefabInstance: {fileID: 0}
  m_PrefabAsset: {fileID: 0}
  m_GameObject: {fileID: 0}
  m_Enabled: 1
  m_EditorHideFlags: 0
  m_Script: {fileID: 11500000, guid: 3eeea3e450c489646b1bfef1908c295d, type: 3}
  m_Name: MainGame
  m_EditorClassIdentifier: 
  setups:
  - m_Path: Assets/Scenes/MainGame/MainGame.unity
    m_IsLoaded: 1
    m_IsActive: 1
    m_IsSubScene: 0
  - m_Path: Assets/Scenes/MainGame/MainGameUI.unity
    m_IsLoaded: 1
    m_IsActive: 0
    m_IsSubScene: 0
